<?xml version="1.0" encoding="utf-8"?>
<!-- Generator: Adobe Illustrator 24.0.1, SVG Export Plug-In . SVG Version: 6.00 Build 0)  -->
<svg version="1.1" id="Layer_1" xmlns="http://www.w3.org/2000/svg" xmlns:xlink="http://www.w3.org/1999/xlink" x="0px" y="0px"
	 viewBox="0 0 350 350" style="enable-background:new 0 0 350 350;" xml:space="preserve">
<style type="text/css">
	.st0{fill:none;stroke:#FDB913;stroke-width:1.1339;stroke-linejoin:bevel;stroke-miterlimit:10;}
	.st1{fill:none;stroke:#FDB913;stroke-width:1.1254;stroke-linejoin:bevel;stroke-miterlimit:10;}
	.st2{fill:none;stroke:#FDB913;stroke-width:0.6385;stroke-linejoin:bevel;stroke-miterlimit:10;}
	.st3{fill:#FDB913;}
	.st4{fill:none;stroke:#FDB913;stroke-width:1.1762;stroke-linejoin:bevel;stroke-miterlimit:10;}
	.st5{fill:none;stroke:#FDB913;stroke-width:2;stroke-linejoin:bevel;stroke-miterlimit:10;}
	.st6{fill:#F2F2F2;}
	.st7{fill:none;stroke:#FDB913;stroke-linejoin:bevel;stroke-miterlimit:10;}
</style>
<g>
	<path class="st5" d="M209.85,107.11c-6.97-1.31-16.42-3.09-28.64-5.37"/>
	<path class="st5" d="M49.2,172.72c-7.02,14.48-18.23,43.73-10.89,77.37c13.76,63.1,85.44,91.46,130.85,97.38
		c8.16,1.06,107.21,12.55,143.08-52.23c27.49-49.65-1.68-107.93-7.69-117.17c-24.73-37.99-52.29-57.65-78-67.54"/>
	<path class="st5" d="M225.77,125.1c11.39,9.12,50.06,43.22,54.5,99c0.98,12.26,4.07,51.05-20.26,80.17
		c-40.53,48.53-131.91,40.01-185.2,1.52c-11.99-8.66-46.26-33.42-52.85-78.72c-5.98-41.1,14.68-72.71,20.54-81.07"/>
	<path class="st5" d="M149.32,68.48c8.01-3.8,33.46-14.65,64.47-7.15c46.9,11.34,65.06,54.61,66.95,59.34
		c2.17,5.42,19.08,49.8-7.61,89.27c-6.48,9.59-14.13,16.8-21.58,22.2"/>
	<polyline class="st5" points="49.53,5.39 83.16,47.48 43.49,36.21 76.06,67.03 	"/>
	<g>
		<path class="st5" d="M103.25,232.87c-36.58-22.02-47.23-41.96-53.94-60.09c-3.11-8.41-4.82-16.91-6.81-26.78
			c-5.56-27.63-6.7-50.76-6.74-66.41c11.32-2.83,24.01-6.69,37.59-12.01c14.08-5.53,26.4-11.57,36.9-17.4
			c11.1,5.86,23.41,11.77,36.9,17.4c12.34,5.16,24.13,9.45,35.19,13.03c-0.33,13.19-1.14,31.77-3.31,54.29"/>
		<path class="st5" d="M169.54,143C169.64,142.11,169.44,143.9,169.54,143c2.03-18.84,3.37-37.71,3.99-56.24
			c-10.01-3.4-19.98-7.17-29.71-11.23c-11.31-4.73-22.55-9.96-33.48-15.59c-10.94,5.87-22.3,11.13-33.84,15.66
			c-10.44,4.09-21.18,7.66-32.03,10.62c0.45,19.38,2.62,38.88,6.49,58.08c1.91,9.5,3.56,17.7,6.44,25.48
			c5.22,14.1,18.54,33.86,46.82,51.85"/>
	</g>
	<g>
		<polyline class="st5" points="104.23,232.87 106.55,199.04 227.22,91.65 223.93,148.63 251.45,232 		"/>
		<polyline class="st5" points="107.44,270.04 114.31,304.27 74.82,304.27 		"/>
		<line class="st5" x1="306.78" y1="304.27" x2="95.22" y2="304.27"/>
		<line class="st5" x1="212.98" y1="157.79" x2="234.55" y2="223.15"/>
	</g>
	<line class="st5" x1="173.53" y1="191.17" x2="223.93" y2="148.63"/>
	<g>
		<g>
			<line class="st5" x1="167.44" y1="187.12" x2="74.82" y2="255.08"/>
			<line class="st5" x1="157.55" y1="209.54" x2="80.43" y2="257.57"/>
			<line class="st5" x1="180.88" y1="195.02" x2="167.44" y2="203.38"/>
			<line class="st5" x1="157.72" y1="222.14" x2="86.05" y2="260.06"/>
			<line class="st5" x1="194.99" y1="202.41" x2="167.04" y2="217.21"/>
			<line class="st5" x1="157.72" y1="232.89" x2="91.66" y2="262.56"/>
			<line class="st5" x1="209.11" y1="209.81" x2="167.2" y2="228.63"/>
			<line class="st5" x1="157.72" y1="242.09" x2="97.27" y2="265.05"/>
			<line class="st5" x1="223.22" y1="217.21" x2="166.76" y2="238.65"/>
			<line class="st5" x1="157.72" y1="250.03" x2="102.89" y2="267.54"/>
			<line class="st5" x1="224.72" y1="228.63" x2="166.61" y2="247.19"/>
			<line class="st5" x1="157.72" y1="256.76" x2="107.44" y2="270.04"/>
			<line class="st5" x1="225.77" y1="238.78" x2="166.75" y2="254.37"/>
		</g>
		<line class="st5" x1="80.43" y1="257.57" x2="107.44" y2="270.04"/>
		<line class="st5" x1="166.2" y1="187.32" x2="251.45" y2="232"/>
	</g>
	<line class="st5" x1="250.73" y1="232" x2="260.02" y2="304.27"/>
	<line class="st5" x1="223.22" y1="217.21" x2="233.53" y2="304.27"/>
	<line class="st5" x1="97.27" y1="265.05" x2="102.89" y2="304.27"/>
	<g>
		<polyline class="st5" points="106.78,231.24 113.34,193.69 117.18,224 		"/>
		<polyline class="st5" points="123.68,219.23 130.48,178.08 134.91,210.99 		"/>
		<polyline class="st5" points="140.69,206.75 147.61,162.47 152.68,197.95 		"/>
		<polyline class="st5" points="157.72,194.26 164.74,146.86 171.22,189.96 		"/>
		<polyline class="st5" points="173.54,190.47 181.87,131.26 189.25,178.08 		"/>
		<polyline class="st5" points="190.95,175.83 198.87,116.7 206.67,162.29 		"/>
		<polyline class="st5" points="208.18,162.49 216.24,101.74 223.53,149.76 		"/>
	</g>
	<polygon class="st5" points="166.76,187.62 166.76,304.27 157.72,304.27 157.72,194.95 	"/>
	<polygon class="st5" points="74.82,255.08 74.82,304.27 80.43,304.27 80.43,250.99 	"/>
	<path class="st5" d="M236.85,185.2c50.27-14.65,85.64-50.83,90.59-92.49c1.01-8.51,3.82-43.07-18.33-62.83
		c-32.27-28.79-96.49-7.38-131.1,25.91c-7.83,7.53-13.19,14.47-15.58,17.91c-23.09,33.13-20.79,68.63-20.13,76.21
		c0.56,6.43,1.58,11.68,2.38,15.19"/>
	<path class="st5" d="M228.37,160.87c6.79-8.83,24.98-34.92,23.45-70.63c-1.37-31.98-18.68-74.54-54.99-86.04
		c-18.52-5.86-46.47-5.06-63.12,12.08c-8.57,8.82-11.23,18.96-12.3,23.23c-11.72,46.9,42.31,98.13,48.11,103.5"/>
</g>
</svg>
